## Global evaluation
* MWE-based: P=0.6758 R=0.4497 F=0.5400  @(19/19)
* Tok-based: P=0.7741 R=0.4855 F=0.5967  @(19/19)

## Per-category evaluation (partition of Global)
* IAV: MWE-proportion: gold=13.5714% pred=16.4286%  @(7/19)
* IAV: MWE-based: P=0.5346 R=0.4063 F=0.4617  @(7/19)
* IAV: Tok-based: P=0.6065 R=0.4583 F=0.5221  @(7/19)
* IRV: MWE-proportion: gold=31.0000% pred=39.8000%  @(10/19)
* IRV: MWE-based: P=0.7166 R=0.6661 F=0.6904  @(10/19)
* IRV: Tok-based: P=0.7513 R=0.6960 F=0.7226  @(10/19)
* LVC.cause: MWE-proportion: gold=4.0588% pred=2.3529%  @(17/19)
* LVC.cause: MWE-based: P=0.4505 R=0.2040 F=0.2808  @(17/19)
* LVC.cause: Tok-based: P=0.5176 R=0.2257 F=0.3143  @(17/19)
* LVC.full: MWE-proportion: gold=40.1053% pred=39.3158%  @(19/19)
* LVC.full: MWE-based: P=0.6448 R=0.3756 F=0.4747  @(19/19)
* LVC.full: Tok-based: P=0.7455 R=0.4136 F=0.5320  @(19/19)
* VID: MWE-proportion: gold=24.4444% pred=18.8889%  @(18/19)
* VID: MWE-based: P=0.5424 R=0.2644 F=0.3555  @(18/19)
* VID: Tok-based: P=0.6669 R=0.2992 F=0.4131  @(18/19)
* VPC.full: MWE-proportion: gold=21.8571% pred=26.8571%  @(7/19)
* VPC.full: MWE-based: P=0.3945 R=0.3174 F=0.3518  @(7/19)
* VPC.full: Tok-based: P=0.4610 R=0.3539 F=0.4004  @(7/19)
* VPC.semi: MWE-proportion: gold=7.0000% pred=5.6667%  @(3/19)
* VPC.semi: MWE-based: P=0.7241 R=0.3588 F=0.4798  @(3/19)
* VPC.semi: Tok-based: P=0.7567 R=0.3704 F=0.4974  @(3/19)
* MVC: MWE-proportion: gold=7.1429% pred=8.7143%  @(7/19)
* MVC: MWE-based: P=0.1653 R=0.1928 F=0.1780  @(7/19)
* MVC: Tok-based: P=0.1884 R=0.2200 F=0.2030  @(7/19)
* LS.ICV: MWE-proportion: gold=2.0000% pred=2.0000%  @(1/19)
* LS.ICV: MWE-based: P=0.4000 R=0.2500 F=0.3077  @(1/19)
* LS.ICV: Tok-based: P=0.6667 R=0.3529 F=0.4615  @(1/19)

## MWE continuity (partition of Global)
* Continuous: MWE-proportion: gold=66.1579% pred=74.6316%  @(19/19)
* Continuous: MWE-based: P=0.6819 R=0.4978 F=0.5755  @(19/19)
* Discontinuous: MWE-proportion: gold=33.8421% pred=25.3684%  @(19/19)
* Discontinuous: MWE-based: P=0.6114 R=0.3481 F=0.4436  @(19/19)

## Number of tokens (partition of Global)
* Multi-token: MWE-proportion: gold=94.7895% pred=84.1053%  @(19/19)
* Multi-token: MWE-based: P=0.7466 R=0.4459 F=0.5583  @(19/19)
* Single-token: MWE-proportion: gold=19.8000% pred=23.0000%  @(5/19)
* Single-token: MWE-based: P=0.3070 R=0.2249 F=0.2596  @(5/19)

## Whether seen in train (partition of Global)
* Seen-in-train: MWE-proportion: gold=59.7895% pred=66.6842%  @(19/19)
* Seen-in-train: MWE-based: P=0.8654 R=0.6300 F=0.7292  @(19/19)
* Unseen-in-train: MWE-proportion: gold=40.2105% pred=33.3158%  @(19/19)
* Unseen-in-train: MWE-based: P=0.2394 R=0.1361 F=0.1735  @(19/19)

## Whether identical to train (partition of Seen-in-train)
* Variant-of-train: MWE-proportion: gold=52.7895% pred=44.5789%  @(19/19)
* Variant-of-train: MWE-based: P=0.8322 R=0.5082 F=0.6310  @(19/19)
* Identical-to-train: MWE-proportion: gold=47.2105% pred=55.4211%  @(19/19)
* Identical-to-train: MWE-based: P=0.8915 R=0.7571 F=0.8188  @(19/19)

