## Global evaluation
* MWE-based: P=0.6608 R=0.5182 F=0.5809  @(19/19)
* Tok-based: P=0.7622 R=0.5427 F=0.6340  @(19/19)

## Per-category evaluation (partition of Global)
* IAV: MWE-proportion: gold=13.5714% pred=13.4286%  @(7/19)
* IAV: MWE-based: P=0.4541 R=0.3456 F=0.3925  @(7/19)
* IAV: Tok-based: P=0.5581 R=0.3971 F=0.4640  @(7/19)
* IRV: MWE-proportion: gold=31.0000% pred=38.7000%  @(10/19)
* IRV: MWE-based: P=0.6523 R=0.6769 F=0.6644  @(10/19)
* IRV: Tok-based: P=0.7109 R=0.7063 F=0.7086  @(10/19)
* LVC.cause: MWE-proportion: gold=4.0588% pred=2.7647%  @(17/19)
* LVC.cause: MWE-based: P=0.4293 R=0.2784 F=0.3378  @(17/19)
* LVC.cause: Tok-based: P=0.5236 R=0.2907 F=0.3738  @(17/19)
* LVC.full: MWE-proportion: gold=40.1053% pred=38.5789%  @(19/19)
* LVC.full: MWE-based: P=0.5838 R=0.4282 F=0.4940  @(19/19)
* LVC.full: Tok-based: P=0.6984 R=0.4613 F=0.5556  @(19/19)
* VID: MWE-proportion: gold=23.1579% pred=18.8947%  @(19/19)
* VID: MWE-based: P=0.4918 R=0.3212 F=0.3886  @(19/19)
* VID: Tok-based: P=0.6199 R=0.3442 F=0.4426  @(19/19)
* VPC.full: MWE-proportion: gold=21.8571% pred=27.8571%  @(7/19)
* VPC.full: MWE-based: P=0.3989 R=0.3055 F=0.3460  @(7/19)
* VPC.full: Tok-based: P=0.4577 R=0.3190 F=0.3760  @(7/19)
* VPC.semi: MWE-proportion: gold=7.0000% pred=7.3333%  @(3/19)
* VPC.semi: MWE-based: P=0.4763 R=0.3886 F=0.4280  @(3/19)
* VPC.semi: Tok-based: P=0.5462 R=0.4019 F=0.4631  @(3/19)
* MVC: MWE-proportion: gold=7.1429% pred=9.1429%  @(7/19)
* MVC: MWE-based: P=0.5140 R=0.3742 F=0.4331  @(7/19)
* MVC: Tok-based: P=0.5434 R=0.3965 F=0.4585  @(7/19)
* LS.ICV: MWE-proportion: gold=2.0000% pred=1.0000%  @(1/19)
* LS.ICV: MWE-based: P=0.3333 R=0.1250 F=0.1818  @(1/19)
* LS.ICV: Tok-based: P=0.8000 R=0.2353 F=0.3636  @(1/19)

## MWE continuity (partition of Global)
* Continuous: MWE-proportion: gold=66.1579% pred=78.5263%  @(19/19)
* Continuous: MWE-based: P=0.6607 R=0.5973 F=0.6274  @(19/19)
* Discontinuous: MWE-proportion: gold=33.8421% pred=21.4737%  @(19/19)
* Discontinuous: MWE-based: P=0.6295 R=0.3287 F=0.4319  @(19/19)

## Number of tokens (partition of Global)
* Multi-token: MWE-proportion: gold=94.7895% pred=83.4211%  @(19/19)
* Multi-token: MWE-based: P=0.7337 R=0.5065 F=0.5993  @(19/19)
* Single-token: MWE-proportion: gold=19.8000% pred=31.6000%  @(5/19)
* Single-token: MWE-based: P=0.2777 R=0.2890 F=0.2832  @(5/19)

## Whether seen in train (partition of Global)
* Seen-in-train: MWE-proportion: gold=59.7895% pred=58.2632%  @(19/19)
* Seen-in-train: MWE-based: P=0.8900 R=0.6678 F=0.7631  @(19/19)
* Unseen-in-train: MWE-proportion: gold=40.2105% pred=41.7368%  @(19/19)
* Unseen-in-train: MWE-based: P=0.3173 R=0.2580 F=0.2846  @(19/19)

## Whether identical to train (partition of Seen-in-train)
* Variant-of-train: MWE-proportion: gold=52.7895% pred=41.4211%  @(19/19)
* Variant-of-train: MWE-based: P=0.8595 R=0.5003 F=0.6325  @(19/19)
* Identical-to-train: MWE-proportion: gold=47.2105% pred=58.5789%  @(19/19)
* Identical-to-train: MWE-based: P=0.9026 R=0.8515 F=0.8763  @(19/19)

